<?xml version="1.0" encoding="UTF-8"?>
<svg width="120px" height="120px" viewBox="0 0 120 120" version="1.1" xmlns="http://www.w3.org/2000/svg" xmlns:xlink="http://www.w3.org/1999/xlink">
    <!-- Generator: Sketch 53.2 (72643) - https://sketchapp.com -->
    <title>btn_app_kp_default</title>
    <desc>Created with Sketch.</desc>
    <g id="spec" stroke="none" stroke-width="1" fill="none" fill-rule="evenodd">
        <g id="Artboard" transform="translate(-461.000000, -1042.000000)">
            <g id="btn_app_kp_default" transform="translate(461.000000, 1042.000000)">
                <rect id="Rectangle-Copy-91" fill="#000000" x="0" y="0" width="120" height="120" rx="6"></rect>
                <g id="Group-11-Copy-2" transform="translate(25.000000, 20.000000)" fill-rule="nonzero">
                    <path d="M23.894955,34.0057275 L31.0730588,26.8276237 C30.6962704,26.1121164 30.5,25.3182708 30.5,24.5011876 C30.5,22.1215763 32.1787949,20.0723854 34.5,19.6012057 L34.5,9.53399212 C26.6346052,10.0516957 20.5,16.6002541 20.5,24.5011876 C20.5,27.9913885 21.6969696,31.3251471 23.894955,34.0057275 Z" id="Path" stroke="#81848B"></path>
                    <path d="M36,9 L36.5328391,9.03507169 C44.6496594,9.56932416 51,16.3254408 51,24.5011876 C51,28.3072384 49.6225725,31.9010494 47.1664613,34.7065803 L46.8145153,35.1085961 L39.0290957,27.3231765 L39.254744,26.982483 C39.738351,26.252312 40,25.3968442 40,24.5011876 C40,22.3514323 38.4808829,20.5135009 36.4005339,20.0912123 L36,20.0099082 L36,9 Z" id="Path" fill="#6699F0"></path>
                    <path d="M32.8029067,28.6725972 L25.7193765,35.7561274 C28.4989193,38.3522425 32.1305445,39.7917722 35.9558096,39.7917722 C39.6135486,39.7917722 43.096885,38.4763667 45.8318535,36.0820297 L38.7131995,28.9633757 C37.8963851,29.5043684 36.9439631,29.7917722 35.9558096,29.7917722 C34.7992805,29.7917722 33.6940459,29.3974703 32.8029067,28.6725972 Z" id="Combined-Shape" stroke="#81848B"></path>
                    <rect id="Rectangle" stroke="#81848B" stroke-width="2" x="1" y="1" width="68" height="78" rx="6"></rect>
                    <path d="M14,51.5 L56,51.5" id="Path-6" stroke="#81848B" stroke-width="2"></path>
                    <path d="M14,60.5 L48,60.5" id="Path-6-Copy" stroke="#81848B" stroke-width="2"></path>
                    <path d="M14,69.5 L56,69.5" id="Path-6-Copy-2" stroke="#81848B" stroke-width="2"></path>
                </g>
            </g>
        </g>
    </g>
</svg>