<svg version="1.1"
	 id="Layer_1" xmlns:v="http://schemas.microsoft.com/visio/2003/SVGExtensions/" xmlns:ev="http://www.w3.org/2001/xml-events"
	 xmlns="http://www.w3.org/2000/svg" xmlns:xlink="http://www.w3.org/1999/xlink" x="0px" y="0px" width="24.52px"
	 height="30.898px" viewBox="18.24 18.24 24.52 30.898" enable-background="new 18.24 18.24 24.52 30.898" xml:space="preserve">
<g>
		<g id="shape1-1" v:mID="1" v:groupContext="shape" transform="translate(18,-807.307)">
			<title>Sheet.1</title>
			<rect x="0" y="825.307" width="25.512" height="16.5825" fill="#646464"/>
		</g>
	</g>
</svg>
