<svg xmlns="http://www.w3.org/2000/svg" xmlns:xlink="http://www.w3.org/1999/xlink" xmlns:ev="http://www.w3.org/2001/xml-events"
		xmlns:v="http://schemas.microsoft.com/visio/2003/SVGExtensions/" width="2.6679in" height="3.12065in"
		viewBox="0 0 192.089 224.687" xml:space="preserve" color-interpolation-filters="sRGB" class="st2">
<linearGradient id="anim"  x1="0%" y1="100%">
      <stop offset="0%" stop-color="red" stop-opacity="1">
      		<animate attributeName="stop-color" 
      			values="red;rgba(255,0,0,0.3);red" dur="50ms" repeatCount="indefinite"/>
		</stop>
    </linearGradient>
    
    
		<g id="shape1-1" v:mID="1" v:groupContext="shape" transform="translate(0.375,-0.375)">
			<path fill="url(#anim)" d="M0 0.75 L0 99.96 L28.35 99.96 L28.35 132.56 L63.78 132.56 L63.78 224.69 L99.21 224.69 L99.21 132.56 L120.47
						 132.56 L120.47 101.38 L191.34 101.38 L191.34 19.18 L127.56 19.18 L127.56 0.75 L0 0.75 Z" class="st1"/>
		</g>
</svg>
