<svg version="1.1"
	 id="Layer_1" xmlns:v="http://schemas.microsoft.com/visio/2003/SVGExtensions/" xmlns:ev="http://www.w3.org/2001/xml-events"
	 xmlns="http://www.w3.org/2000/svg" xmlns:xlink="http://www.w3.org/1999/xlink" x="0px" y="0px" width="48.9px" height="17px"
	 viewBox="18.239 18.244 48.9 17" enable-background="new 18.239 18.244 48.9 17" xml:space="preserve">
		
		<linearGradient id="anim"  fy="0">
      <stop offset="0" stop-color="#148F01">
		</stop>
		<stop offset=".7" stop-color="#46DF04">
		</stop>
    </linearGradient>
        
        
        <g transform="translate(34.1849,-25.3266)">
			<g>
				<path fill="url(#anim)"  stroke='rgba(49,163,0,0.7)' d="M31.954,52.07c0.55,0,1,0.45,1,1v6.5c0,0.55-0.45,1-1,1h-46.9c-0.55,0-1-0.45-1-1v-6.5
					c0-0.55,0.45-1,1-1h13.95c0.55,0,1-0.45,1-1v-6.5c0-0.55,0.45-1,1-1h16.78c0.55,0,1,0.45,1,1v6.5c0,0.55,0.45,1,1,1H31.954z" >
					
        </path>
			</g>
		</g>
</svg>
